Example HTE Analysis • tidyhte
…
construct_pseudo_outcomes(prepped_data, {{ outcome_variable }}, {{ treatment_variable }}) %>%
    estimate_QoI(!!!moderators) -> results

results

## # A tibble: 80 × 6
##    estimand term  value level estimate std_error
##    <chr>    <chr> <int> <chr>    <dbl>     <dbl>
##  1 MCATE    x2       NA 3        1.92     0.0950
##  2 MCATE    x2       NA 2        2.09     0.129 
##  3 MCATE    x2       NA 4        1.56     0.0680
##  4 MCATE    x2       NA 1        0.730    0.575 
##  5 MCATE    x3       NA 1        1.79     0.157 
##  6 MCATE    x3       NA 3        1.90     0.0764
##  7 MCATE    x3       NA 2        1.68     0.126 
##  8 PCATE    x2        3 3        2.20     1.04  
##  9 PCATE    x2        2 2        2.19     1.04  
## 10 PCATE    x2        4 4        1.10     1.07  
## # … with 70 more rows
…
