Methodological Details • tidyhte
…
Quantities of interest

Finally, it comes to the most glamorous part of the analysis, when effects are estimated and put into charts.

The design of tidyhte chooses to leave the charting to the end-user, but merely returns a tidy tibble with all of the requested quantities of interest.

penguins %>% 
  estimate_QoI(species, island, sex, year, bill_length_mm, bill_depth_mm, flipper_length_mm) ->
  results

The resulting tibble provides looks like the following:

results

## # A tibble: 349 × 6
##    estimand term    value level     estimate std_error
##    <chr>    <chr>   <dbl> <chr>        <dbl>     <dbl>
##  1 MCATE    species    NA Adelie     -98.0        3.06
##  2 MCATE    species    NA Gentoo     101.         3.87
##  3 MCATE    species    NA Chinstrap   -7.55       5.33
##  4 MCATE    island     NA Torgersen  -94.3        6.14
##  5 MCATE    island     NA Biscoe      47.2        7.60
##  6 MCATE    island     NA Dream      -49.6        5.54
##  7 MCATE    sex        NA male        -7.29       7.78
##  8 MCATE    sex        NA female      -9.82       7.27
##  9 MCATE    year     2007 NA         -12.9        9.36
## 10 MCATE    year     2008 NA           0.838      9.42
## # … with 339 more rows
…
