HTE Analysis on Observational Data • tidyhte
…
data %>%
    attach_config(hte_cfg) %>%
    make_splits(uid, .num_splits = 4) %>%
    produce_plugin_estimates(
        y,
        a,
        x1, x2, x3, x4, x5,
    ) -> prepped_data

construct_pseudo_outcomes(prepped_data, y, a) %>%
    estimate_QoI(x1, x2, x3, x4, x5) -> results

results

## # A tibble: 401 × 6
##    estimand term  value level estimate std_error
##    <chr>    <chr> <dbl> <chr>    <dbl>     <dbl>
##  1 MCATE    x1    -1.74 NA        3.69     0.247
##  2 MCATE    x1    -1.63 NA        3.55     0.228
##  3 MCATE    x1    -1.53 NA        3.43     0.211
##  4 MCATE    x1    -1.44 NA        3.33     0.197
##  5 MCATE    x1    -1.37 NA        3.25     0.185
##  6 MCATE    x1    -1.32 NA        3.18     0.176
##  7 MCATE    x1    -1.27 NA        3.13     0.169
##  8 MCATE    x1    -1.21 NA        3.07     0.161
##  9 MCATE    x1    -1.17 NA        3.03     0.155
## 10 MCATE    x1    -1.12 NA        2.97     0.148
## # … with 391 more rows
…
